{
	"authors": [
		"tynuk"
	],
	"copyright": "Copyright © 2021, tynuk",
	"description": "Building Poisson disk in 3D",
	"license": "MIT",
	"name": "poisson",
	"dependencies": {
		"bindbc-opengl": "~>0.15.0",
		"gl3n": "~>1.3.1",
		"glfw-d": "~>1.0.1"
	},
	"versions": [
		"GL_46"
	]


}
